MSDS 6306: Case 1
…
#beer summarized by style 
beerData %>%
  group_by(Style) %>%
  summarise(
    count= n(),
    IBU_count = sum(!is.na(IBU)),
    IBU_average = mean(IBU, na.rm = TRUE),
    IBU_sd = sd(IBU, na.rm = TRUE),
    ABV_count = sum(!is.na(ABV)),
    ABV_average = mean(ABV, na.rm = TRUE),
    ABV_sd = sd(ABV, na.rm = TRUE)
  ) 

## # A tibble: 100 x 8
##    Style   count IBU_count IBU_average IBU_sd ABV_count ABV_average  ABV_sd
##    <chr>   <int>     <int>       <dbl>  <dbl>     <int>       <dbl>   <dbl>
##  1 <NA>        5         2        24     4.24         2      0.0565 0.00495
##  2 Abbey ~     2         2        22     0            2      0.049  0      
##  3 Altbier    13         8        34.1   8.34        13      0.0544 0.00690
##  4 Americ~    18        11        11     3.77        18      0.0487 0.00431
##  5 Americ~   133        77        36.3  19.6        125      0.0575 0.00868
##  6 Americ~    29        16        23.2   9.39        28      0.0495 0.00464
##  7 Americ~     3         2        96     5.66         3      0.099  0      
##  8 Americ~    36        20        68.9  21.4         35      0.0690 0.0126 
##  9 Americ~   108        61        21.0   7.28       104      0.0496 0.00494
## 10 Americ~    70        38        29.9  12.3         68      0.0579 0.00971
## # ... with 90 more rows
…
## # A tibble: 1 x 7
##    Name Beer_ID   ABV   IBU Brewery_id Style Ounces
##   <int>   <int> <int> <int>      <int> <int>  <int>
## 1     0       0    62  1005          0     5      0

# ABV, IBU, Style have missing values 

beerData %>% 
    filter(is.na(ABV) |is.na(IBU) | is.na(Style)) 

## # A tibble: 1,007 x 7
##    Name           Beer_ID   ABV   IBU Brewery_id Style               Ounces
##    <chr>            <dbl> <dbl> <dbl>      <dbl> <chr>                <dbl>
##  1 Pub Beer          1436 0.05     NA        409 American Pale Lager     12
##  2 Devil's Cup       2265 0.066    NA        178 American Pale Ale ~     12
##  3 Rise of the P~    2264 0.071    NA        178 American IPA            12
##  4 Sinister          2263 0.09     NA        178 American Double / ~     12
##  5 Sex and Candy     2262 0.075    NA        178 American IPA            12
##  6 Black Exodus      2261 0.077    NA        178 Oatmeal Stout           12
##  7 Lake Street E~    2260 0.045    NA        178 American Pale Ale ~     12
##  8 Foreman           2259 0.065    NA        178 American Porter         12
##  9 Jade              2258 0.055    NA        178 American Pale Ale ~     12
## 10 Cone Crusher      2131 0.086    NA        178 American Double / ~     12
## # ... with 997 more rows
…
#returns no results so all beers have a brewery

#Post merge data peak 
first_combo_brewery<-head(beer_brewery,6)
last_combo_brewery<-tail(beer_brewery,6)

## Warning in do_dist(a = b, b = a, method = method, weight = weight, q =
## q, : Non-printable ascii or non-ascii characters in soundex. Results may be
## unreliable. See ?printable_ascii.

## # A tibble: 2,653,056 x 12
##    V1    V2      osa    lv    dl hamming   lcs qgram cosine jaccard     jw
##    <chr> <chr> <dbl> <dbl> <dbl>   <dbl> <dbl> <dbl>  <dbl>   <dbl>  <dbl>
##  1 Brew~ Brew~     1     1     1       1     2     2 0.0147   0.105 0.0238
##  2 Boon~ Boon~     1     1     1       1     2     2 0.0278   0     0.0303
##  3 Broo~ Broo~     1     1     1       1     2     2 0.0270   0.105 0.0290
##  4 Cald~ Cald~     1     1     1       1     2     2 0.0417   0.125 0.0370
##  5 Cald~ Cald~     1     1     1       1     2     2 0.0204   0     0.0290
##  6 Cald~ Cald~     1     1     1       1     2     2 0.0204   0.133 0.0290
##  7 Cald~ Cald~     1     1     1       1     2     2 0.0204   0.133 0.0290
##  8 Cald~ Cald~     1     1     1       1     2     2 0.0204   0.133 0.0290
##  9 Indi~ Indi~     1     1     1       1     2     2 0.0426   0     0.137 
## 10 Vert~ Vort~     1     1     1       1     2     2 0.0871   0.100 0.122 
## # ... with 2,653,046 more rows, and 1 more variable: soundex <dbl>

## Warning in do_dist(a = b, b = a, method = method, weight = weight, q =
## q, : Non-printable ascii or non-ascii characters in soundex. Results may be
## unreliable. See ?printable_ascii.

## # A tibble: 4,950 x 12
##    V1    V2      osa    lv    dl hamming   lcs qgram cosine jaccard    jw
##    <chr> <chr> <dbl> <dbl> <dbl>   <dbl> <dbl> <dbl>  <dbl>   <dbl> <dbl>
##  1 Altb~ Witb~     2     2     2       2     4     4 0.244    0.375 0.190
##  2 Cider Other     3     3     3       3     6     6 0.6      0.75  0.4  
##  3 Cider Radl~     3     3     3     Inf     5     5 0.452    0.625 0.3  
##  4 Belg~ Belg~     3     3     3       3     6     6 0.0979   0.308 0.176
##  5 Amer~ Amer~     3     3     3       3     6     6 0.0607   0.188 0.170
##  6 Belg~ Belg~     3     3     3       3     6     6 0.0660   0.188 0.120
##  7 Gose  Bock      3     3     3       3     6     6 0.75     0.857 0.5  
##  8 Crea~ Whea~     3     3     3       3     6     6 0.273    0.545 0.222
##  9 Euro~ Euro~     3     3     3       3     6     6 0.124    0.308 0.203
## 10 Engl~ Engl~     3     3     3       3     6     6 0.0720   0.235 0.179
## # ... with 4,940 more rows, and 1 more variable: soundex <dbl>
…
